…
3. Now you can load the data in either R or Python.

   In R:

   ```r
   library(feather)
   library(dplyr)
   data <- read_feather("~/Downloads/data.feather")
   data %>% group_by(type) %>% summarize(entries = n())
   ```

   ```
   # A tibble: 28 × 2
                                               type entries
                                             <chr>   <int>
   1     HKQuantityTypeIdentifierActiveEnergyBurned   84742
   2      HKQuantityTypeIdentifierAppleExerciseTime    5997
   3      HKQuantityTypeIdentifierBasalEnergyBurned   52477
   4      HKQuantityTypeIdentifierBodyFatPercentage      44
   5               HKQuantityTypeIdentifierBodyMass      84
   6          HKQuantityTypeIdentifierBodyMassIndex      40
   7         HKQuantityTypeIdentifierDietaryCalcium      84
   8   HKQuantityTypeIdentifierDietaryCarbohydrates      84
   9     HKQuantityTypeIdentifierDietaryCholesterol      84
   10 HKQuantityTypeIdentifierDietaryEnergyConsumed      84
   # ... with 18 more rows
   ```
…
